…
set.seed(42)

seeds <- sample(1:100000, n_iter)
files <- glue("queen{orders}_{orders}.col") %>% as.character()

(experiments <- list(
  problem_file = file.path("graphs", files),
  type = c("simple", "random"),
  ordering = c("random", "lbsfr"),
  seed = seeds
) %>%
  cross_df())
#> # A tibble: 2,400 x 4
#>    problem_file          type   ordering  seed
#>    <chr>                 <chr>  <chr>    <int>
#>  1 graphs/queen5_5.col   simple random   61413
#>  2 graphs/queen6_6.col   simple random   61413
#>  3 graphs/queen7_7.col   simple random   61413
#>  4 graphs/queen8_8.col   simple random   61413
#>  5 graphs/queen9_9.col   simple random   61413
#>  6 graphs/queen10_10.col simple random   61413
#>  7 graphs/queen11_11.col simple random   61413
#>  8 graphs/queen12_12.col simple random   61413
#>  9 graphs/queen13_13.col simple random   61413
#> 10 graphs/queen14_14.col simple random   61413
#> # … with 2,390 more rows
```

``` r
library(tictoc)

tic()
(results <- experiments %>%
  mutate(
    n_colours = pmap_dbl(experiments, ccli_greedy_clrs)
  ))
#> # A tibble: 2,400 x 5
#>    problem_file          type   ordering  seed n_colours
#>    <chr>                 <chr>  <chr>    <int>     <dbl>
#>  1 graphs/queen5_5.col   simple random   61413         9
#>  2 graphs/queen6_6.col   simple random   61413        10
#>  3 graphs/queen7_7.col   simple random   61413        11
#>  4 graphs/queen8_8.col   simple random   61413        12
#>  5 graphs/queen9_9.col   simple random   61413        13
#>  6 graphs/queen10_10.col simple random   61413        15
#>  7 graphs/queen11_11.col simple random   61413        16
#>  8 graphs/queen12_12.col simple random   61413        18
#>  9 graphs/queen13_13.col simple random   61413        21
#> 10 graphs/queen14_14.col simple random   61413        21
#> # … with 2,390 more rows
…
